…
To make the data easier to analyse, we can then group by each simulation and colour, and count the number of skittles:

gathered <- sims %>%
  group_by(sim, colour) %>%
  summarise(n = n())

## `summarise()` has grouped output by 'sim'. You can override using the `.groups` argument.

gathered

## # A tibble: 499,994 x 3
## # Groups:   sim [100,000]
##      sim colour     n
##    <int> <chr>  <int>
##  1     1 Green     11
##  2     1 Orange     7
##  3     1 Purple    11
##  4     1 Red        7
##  5     1 Yellow    14
##  6     2 Green      8
##  7     2 Orange     9
##  8     2 Purple    12
##  9     2 Red        5
## 10     2 Yellow    16
## # ... with 499,984 more rows
…
