…
malta_v2 <- create_population(blueberry_bias_age = 0.1, 
                              blueberry_bias_location = 0.05)

Here, I’ll be biasing blueberry just a nudge with age (blueberry increases in popularity with age) and location (people in the north like to sprinkle them in yogurt for breakfast).

Anyway, the alternate Malta NSO’s latest census shows the population is comprised of:

census <- malta_v2 %>% 
  group_by(age, region, occupation, has_car) %>% 
  tally()

census

## # A tibble: 300 x 5
## # Groups:   age, region, occupation [150]
##    age   region           occupation     has_car     n
##    <chr> <chr>            <chr>          <chr>   <int>
##  1 18-30 Gozitan Republic Bitcoin Trader No        612
##  2 18-30 Gozitan Republic Bitcoin Trader Yes       582
##  3 18-30 Gozitan Republic Farmer         No        539
##  4 18-30 Gozitan Republic Farmer         Yes       586
##  5 18-30 Gozitan Republic Healthcare     No        516
##  6 18-30 Gozitan Republic Healthcare     Yes       520
##  7 18-30 Gozitan Republic Law Enforcment No        518
##  8 18-30 Gozitan Republic Law Enforcment Yes       540
##  9 18-30 Gozitan Republic Office Work    No        527
## 10 18-30 Gozitan Republic Office Work    Yes       541
## # ... with 290 more rows
…
